G01 G93 X0 Y0 Z3.7 A0 B0 C0 F180

o100 sub

G01 G93 X0 Y1.0 Z3.7 A-15 B0 C0 F180
G01 G93 X0 Y1.0 Z3.7 A15 B0 C0 F180
G01 G93 X0 Y-1.0 Z3.7 A15 B0 C0 F180
G01 G93 X0 Y-1.0 Z3.7 A-15 B0 C0 F180

o100 endsub

o103 repeat [1]
o100 call
o103 endrepeat

G01 G93 X0 Y0 Z3.7 A0 B0 C0 F180

M2
